<?xml version="1.0" encoding="utf-8"?>
<!-- Generator: Adobe Illustrator 26.0.2, SVG Export Plug-In . SVG Version: 6.00 Build 0)  -->
<svg version="1.1" id="Layer_1" xmlns="http://www.w3.org/2000/svg" xmlns:xlink="http://www.w3.org/1999/xlink" x="0px" y="0px"
	 viewBox="0 0 297 258" style="enable-background:new 0 0 297 258;" xml:space="preserve">
<style type="text/css">
	.st0{fill:#727171;}
</style>
<g id="Layer_2_00000031207832107933996320000002315833334399739546_">
	<g id="Layer_1-2">
		<path class="st0" d="M296.9,39v6c-1.8,1-2.1,2.9-2.9,4.5c-7,13.6-13.8,27.3-20.8,40.9c-3.6,7.1-5.2,7.8-13,5.5
			c-6-1.8-12.1-3.6-18.1-5.4c-5.4-1.6-5.4-1.6-5.4,4.2c0,50.8,0,101.6,0.1,152.4c0,4.2-0.7,7.8-3.6,10.8H64.8
			c-2.9-3-3.7-6.6-3.7-10.8c0.1-50.6,0.1-101.2,0.1-151.9c0-6.3,0-6.3-5.9-4.6l-20,5.9c-4,1.2-7.3,0.4-9.3-3.5
			C18,77.2,10,61.4,2,45.5c-2.2-4.3-0.9-7.6,3.5-9.9c3.5-1.8,7.2-3.5,10.8-5c17-7.5,33.2-16.7,50.9-22.6c9.3-3.1,19-5.3,28.5-7.9h6
			c2.6,1.7,3.9,4.3,4.7,7.3C112.3,27.2,129.1,40,149,40s36.7-12.8,42.6-32.7c0.9-3,2.1-5.5,4.7-7.3h6c0.4,1,1.3,0.8,2.1,1
			c13.6,3,27.1,6.1,39.8,12.1c15,7.1,30,14,45,20.9C292,35.2,294.6,36.9,296.9,39z"/>
		<path class="st0" d="M121.8,5c17.8,4.1,36.4,4.1,54.2,0c-1.5,10.3-13.4,19.5-25.4,20C137.1,25.6,124.6,17.1,121.8,5z"/>
	</g>
</g>
</svg>
